{
  "project_info": {
    "project_number": "812838624061",
    "firebase_url": "https://test123-39ed0.firebaseio.com",
    "project_id": "test123-39ed0",
    "storage_bucket": "test123-39ed0.appspot.com"
  },
  "client": [
    {
      "client_info": {
        "mobilesdk_app_id": "1:812838624061:android:b196198a8aaa2393",
        "android_client_info": {
          "package_name": "io.sushant.starter"
        }
      },
      "oauth_client": [
        {
          "client_id": "812838624061-7d43v4n36r4s8kc15flc191rheda0tng.apps.googleusercontent.com",
          "client_type": 3
        }
      ],
      "api_key": [
        {
          "current_key": "AIzaSyAaLXiJNN58as7FZLUR9Ene6Kv9IbDAJYc"
        }
      ],
      "services": {
        "analytics_service": {
          "status": 1
        },
        "appinvite_service": {
          "status": 1,
          "other_platform_oauth_client": []
        },
        "ads_service": {
          "status": 2
        }
      }
    },
    {
      "client_info": {
        "mobilesdk_app_id": "1:812838624061:android:adad8aa696c7da6f",
        "android_client_info": {
          "package_name": "com.io.edubigg"
        }
      },
      "oauth_client": [
        {
          "client_id": "812838624061-7d43v4n36r4s8kc15flc191rheda0tng.apps.googleusercontent.com",
          "client_type": 3
        }
      ],
      "api_key": [
        {
          "current_key": "AIzaSyAaLXiJNN58as7FZLUR9Ene6Kv9IbDAJYc"
        }
      ],
      "services": {
        "analytics_service": {
          "status": 1
        },
        "appinvite_service": {
          "status": 1,
          "other_platform_oauth_client": []
        },
        "ads_service": {
          "status": 2
        }
      }
    },
    {
      "client_info": {
        "mobilesdk_app_id": "1:812838624061:android:04467637e37834f9",
        "android_client_info": {
          "package_name": "sambodhiinstitute.in"
        }
      },
      "oauth_client": [
        {
          "client_id": "812838624061-7d43v4n36r4s8kc15flc191rheda0tng.apps.googleusercontent.com",
          "client_type": 3
        }
      ],
      "api_key": [
        {
          "current_key": "AIzaSyAaLXiJNN58as7FZLUR9Ene6Kv9IbDAJYc"
        }
      ],
      "services": {
        "analytics_service": {
          "status": 1
        },
        "appinvite_service": {
          "status": 1,
          "other_platform_oauth_client": []
        },
        "ads_service": {
          "status": 2
        }
      }
    }
  ],
  "configuration_version": "1"
}